{
    "Categories": "Qt;KDE;X-KDE-information;",
    "KPlugin": {
        "Description": "Vulkan graphics API information",
        "Description[az]": "Vulkan qrafik kartları API-si məlumatı",
        "Description[ca@valencia]": "Informació de l'API gràfica Vulkan",
        "Description[ca]": "Informació de l'API gràfica Vulkan",
        "Description[es]": "Información de la API de gráficos Vulkan",
        "Description[fr]": "Informations concernant l'API graphique « Vulkan »",
        "Description[ia]": "Information de API  graphic de Vulkan",
        "Description[it]": "Informazioni API grafiche API Vulkan",
        "Description[ko]": "Vulkan 그래픽 API 정보",
        "Description[nl]": "Vulkan grafische API-informatie",
        "Description[pl]": "Szczegóły o API grafiki Vulkan",
        "Description[pt]": "Informação da API gráfica Vulkan",
        "Description[pt_BR]": "Informações da API gráfica Vulkan",
        "Description[sl]": "Informacije o vmesniku Vulkan graphics",
        "Description[sv]": "Information om Vulkan grafiskt programmeringsgränssnitt",
        "Description[uk]": "Далі щодо графічного програмного інтерфейсу Vulkan",
        "Description[vi]": "Thông tin API đồ hoạ Vulkan",
        "Description[x-test]": "xxVulkan graphics API informationxx",
        "Description[zh_CN]": "Vulkan 图形 API 信息",
        "Icon": "video-display",
        "Name": "Vulkan",
        "Name[az]": "Vulkan",
        "Name[ca@valencia]": "Vulkan",
        "Name[ca]": "Vulkan",
        "Name[cs]": "Vulkan",
        "Name[el]": "Vulkan",
        "Name[en_GB]": "Vulkan",
        "Name[es]": "Vulkan",
        "Name[eu]": "Vulkan",
        "Name[fi]": "Vulkan",
        "Name[fr]": "Vulkan",
        "Name[ia]": "Vulkan",
        "Name[it]": "Vulkan",
        "Name[ko]": "Vulkan",
        "Name[lt]": "Vulkan",
        "Name[nl]": "Vulkan",
        "Name[nn]": "Vulkan",
        "Name[pl]": "Vulkan",
        "Name[pt]": "Vulkan",
        "Name[pt_BR]": "Vulkan",
        "Name[sk]": "Vulkan",
        "Name[sl]": "Vulkan",
        "Name[sv]": "Vulkan",
        "Name[uk]": "Vulkan",
        "Name[vi]": "Vulkan",
        "Name[x-test]": "xxVulkanxx",
        "Name[zh_CN]": "Vulkan"
    },
    "TryExec": "vulkaninfo",
    "X-KDE-KInfoCenter-Category": "graphical_information",
    "X-KDE-Keywords": "Vulkan,VideoCard,Hardware Acceleration,Graphics",
    "X-KDE-Keywords[az]": "Vulkan,Vedeo,Görüntü kartı,Avadanlıq,Sürətləndirici,Acceleration,Graphics,Qrafiklər",
    "X-KDE-Keywords[ca]": "Vulkan,Targeta de vídeo,Acceleració per maquinari,Gràfics",
    "X-KDE-Keywords[cs]": "Vulkan,grafická karta,hardwarová akcelerace,grafika",
    "X-KDE-Keywords[el]": "Vulkan,VideoCard,Επιτάχυνση υλικού,Γραφικά",
    "X-KDE-Keywords[en_GB]": "Vulkan,VideoCard,Hardware Acceleration,Graphics",
    "X-KDE-Keywords[es]": "Vulkan,Tarjeta de vídeo,Tarjeta de video,Aceleración por hardware,Gráficos",
    "X-KDE-Keywords[eu]": "Vulkan,Bideo txartela,Hardware azelerazioa,Grafikoak",
    "X-KDE-Keywords[fi]": "Vulkan,näyttökortti,näytönohjain,laitteistokiihdytys,grafiikka",
    "X-KDE-Keywords[fr]": "Vulkan,Carte Vidéo,Accélération matérielle, Graphique",
    "X-KDE-Keywords[ia]": "Vulkan,Carta de Video,Acceleration Hardware,Graphiches",
    "X-KDE-Keywords[it]": "Vulkan,Scheda video,Accelerazione hardware,Grafica",
    "X-KDE-Keywords[ko]": "Vulkan,VideoCard,Hardware Acceleration,Graphics,비디오 카드,그래픽 카드,하드웨어 가속,그래픽",
    "X-KDE-Keywords[lt]": "Vulkan,vaizdo plokštė,vaizdo plokste,aparatinės įrangos spartinimas,aparatines irangos spartinimas,grafika",
    "X-KDE-Keywords[nl]": "Vulkan,Videokaart,Hardware versnelling,grafische zaken",
    "X-KDE-Keywords[nn]": "Vulkan,skjermkort,maskinvareakselerasjon,grafikk",
    "X-KDE-Keywords[pl]": "Vulkan,Karta graficzna,Przyspieszenie sprzętowe,Grafika",
    "X-KDE-Keywords[pt]": "Vulkan,Placa Gráfica,Aceleração por 'Hardware',Gráficos",
    "X-KDE-Keywords[pt_BR]": "Vulkan,Placa de vídeo,aceleração por hardware,gráfico,gráfica",
    "X-KDE-Keywords[sk]": "Vulkan,grafická karta,hardvérová akcelerácia,grafika",
    "X-KDE-Keywords[sl]": "Vulkan,Videokartica,Strojno pospeševanje,Grafika",
    "X-KDE-Keywords[sv]": "Vulkan,Videokort,Hårdvaruacceleration,Grafik",
    "X-KDE-Keywords[uk]": "Vulkan,VideoCard,Hardware Acceleration,Graphics,вулкан,відеокартка,апаратне прискорення,графіка",
    "X-KDE-Keywords[vi]": "Vulkan,VideoCard,Hardware Acceleration,Graphics,Bo mạch đồ hoạ,Tăng tốc phần cứng,Đồ hoạ",
    "X-KDE-Keywords[x-test]": "xxVulkanxx,xxVideoCardxx,xxHardware Accelerationxx,xxGraphicsxx",
    "X-KDE-Keywords[zh_CN]": "Vulkan,VideoCard,Hardware Acceleration,Graphics,显卡,显示卡,硬件加速,图形,GPU"
}
