{
    "Categories": "Qt;KDE;X-KDE-information;",
    "KPlugin": {
        "Description": "X-Server information",
        "Description[az]": "X-Server məlumatı",
        "Description[ca@valencia]": "Informació del servidor X",
        "Description[ca]": "Informació del servidor X",
        "Description[es]": "Información sobre el servidor X",
        "Description[fr]": "Informations concernant le serveur X",
        "Description[ia]": "Information de Servitor X",
        "Description[it]": "Informazioni sul server X",
        "Description[ko]": "X 서버 정보",
        "Description[nl]": "X-Server-informatie",
        "Description[pl]": "Szczegóły o serwerze X",
        "Description[pt]": "Informações sobre o servidor X",
        "Description[pt_BR]": "Informações do servidor X",
        "Description[sl]": "Podatki o strežniku X",
        "Description[sv]": "X-serverinformation",
        "Description[uk]": "Інформація щодо сервера X",
        "Description[vi]": "Thông tin về máy chủ X",
        "Description[x-test]": "xxX-Server informationxx",
        "Description[zh_CN]": "X 服务器信息",
        "Icon": "xorg",
        "Name": "X-Server",
        "Name[af]": "X-bediener",
        "Name[ar]": "خادوم س",
        "Name[as]": "X-Server",
        "Name[ast]": "Sirvidor X",
        "Name[az]": "X-Server",
        "Name[be@latin]": "Server X",
        "Name[be]": "Сервер X",
        "Name[bg]": "Сървър X",
        "Name[bn]": "এক্স-সার্ভার",
        "Name[bn_IN]": "X-Server",
        "Name[br]": "Servijer X",
        "Name[bs]": "Iks‑server",
        "Name[ca@valencia]": "Servidor X",
        "Name[ca]": "Servidor X",
        "Name[cs]": "X-Server",
        "Name[csb]": "X-Serwer",
        "Name[cy]": "Gweinydd-X",
        "Name[da]": "X-server",
        "Name[de]": "X-Server",
        "Name[el]": "X-Server",
        "Name[en_GB]": "X-Server",
        "Name[eo]": "X-servilo",
        "Name[es]": "Servidor X",
        "Name[et]": "X'i server",
        "Name[eu]": "X zerbitzaria",
        "Name[fa]": "کارساز X",
        "Name[fi]": "X-palvelin",
        "Name[fr]": "Serveur X",
        "Name[fy]": "X-Server",
        "Name[ga]": "Freastalaí X",
        "Name[gl]": "Servidor X",
        "Name[gu]": "X-Server",
        "Name[he]": "שרת X",
        "Name[hi]": "X-सर्वर",
        "Name[hne]": "X-सर्वर",
        "Name[hr]": "X-poslužitelj",
        "Name[hsb]": "X-Server",
        "Name[hu]": "X-kiszolgáló",
        "Name[ia]": "Servitor  X",
        "Name[id]": "X-Server",
        "Name[is]": "X-þjónn",
        "Name[it]": "Server X",
        "Name[ja]": "X サーバ",
        "Name[ka]": "X-სერვერი",
        "Name[kk]": "X-сервер",
        "Name[km]": "ម៉ាស៊ីន​បម្រើ X",
        "Name[kn]": "ಕ್ಸ-ಪರಿಚಾರಕ (ಸರ್ವರ್)",
        "Name[ko]": "X 서버",
        "Name[ku]": "Pêşkêşkara X",
        "Name[lt]": "X-Serveris",
        "Name[lv]": "X-Serveris",
        "Name[mai]": "X-सर्वर",
        "Name[mk]": "X-сервер",
        "Name[ml]": "എക്സ്-സെര്‍വര്‍",
        "Name[mr]": "X-सर्व्हर",
        "Name[ms]": "Pelayan X",
        "Name[nb]": "X-tjener",
        "Name[nds]": "X-Server",
        "Name[ne]": "एक्स-सर्भर",
        "Name[nl]": "X-server",
        "Name[nn]": "X-tenar",
        "Name[or]": "X-ସର୍ଭର",
        "Name[pa]": "X-ਸਰਵਰ",
        "Name[pl]": "X-Serwer",
        "Name[pt]": "Servidor X",
        "Name[pt_BR]": "Servidor X",
        "Name[ro]": "Server X",
        "Name[ru]": "Сервер X",
        "Name[se]": "X-bálvá",
        "Name[si]": "X-Server",
        "Name[sk]": "X-Server",
        "Name[sl]": "Strežnik X",
        "Name[sr@ijekavian]": "Икс‑сервер",
        "Name[sr@ijekavianlatin]": "X-server",
        "Name[sr@latin]": "X-server",
        "Name[sr]": "Икс‑сервер",
        "Name[sv]": "X-server",
        "Name[ta]": "X-வழங்கி",
        "Name[te]": "ఎక్స్-సెర్వర్",
        "Name[tg]": "Хидматгоҳи X",
        "Name[th]": "เซิร์ฟเวอร์ X",
        "Name[tr]": "X-Sunucusu",
        "Name[ug]": "X-مۇلازىمېتىر",
        "Name[uk]": "Сервер X",
        "Name[uz@cyrillic]": "X-Сервер",
        "Name[uz]": "X-Server",
        "Name[vi]": "Máy chủ X",
        "Name[wa]": "Sierveu X",
        "Name[x-test]": "xxX-Serverxx",
        "Name[xh]": "Umncedisi we-X",
        "Name[zh_CN]": "X 服务器",
        "Name[zh_TW]": "X 伺服器"
    },
    "TryExec": "xdpyinfo",
    "X-DocPath": "kinfocenter/xserver.html",
    "X-KDE-KInfoCenter-Category": "graphical_information",
    "X-KDE-Keywords": "X,X-Server,XServer,XFree86,Display,VideoCard,System Information",
    "X-KDE-Keywords[ar]": "X,خادوم X,س,خادوم س,XFree86,عرض,بطاقة فيديو,معلومات النّظام",
    "X-KDE-Keywords[ast]": "X,Sirvidor X,XFree86,Pantalla,Tarxeta de videu,Tarxeta gráfica,Información del sistema,Información,Sistema",
    "X-KDE-Keywords[az]": "X,X-Server,XServer,XFree86,Display,VideoCard,System Information,ekran,videokart,sistem haqqında məlumat,X server",
    "X-KDE-Keywords[bs]": "X,X-Server,XServer,XBesplatno86,Displej,Grafička kartica,Sistemske informacije",
    "X-KDE-Keywords[ca@valencia]": "X,Servidor X,XServer,XFree86,Pantalla,Targeta de vídeo,Informació del sistema",
    "X-KDE-Keywords[ca]": "X,Servidor X,XServer,XFree86,Pantalla,Targeta de vídeo,Informació del sistema",
    "X-KDE-Keywords[cs]": "X,X-Server,XServer,XFree86,Zobrazení,Grafická Karta,Informace o systému",
    "X-KDE-Keywords[da]": "X,X-Server,XServer,XFree86,skærm,Videokort,grafikkort,Systeminformation",
    "X-KDE-Keywords[de]": "X,X-Server,XServer,XFree86,Display,Grafikkarte,Systeminformationen",
    "X-KDE-Keywords[el]": "X,X-Server,XServer,XFree86,οθόνη,VideoCard,πληροφορίες συστήματος",
    "X-KDE-Keywords[en_GB]": "X,X-Server,XServer,XFree86,Display,VideoCard,System Information",
    "X-KDE-Keywords[es]": "X,Servidor-X,XServer,XFree86,Pantalla,Tarjeta de vídeo,Información sobre el sistema",
    "X-KDE-Keywords[et]": "X,X-Server,XServer,XFree86,kuva,videokaart,süsteemi teave",
    "X-KDE-Keywords[eu]": "X,X-Zerbitzaria,XZerbitzaria,XFree86,bistaratzailea,pantaila,bideo-txartel,sistema-informazioa",
    "X-KDE-Keywords[fi]": "X,X-Server,X-palvelin,XServer,XFree86,näyttö,näytönohjain,järjestelmätiedot",
    "X-KDE-Keywords[fr]": "X, Serveur X, X-Server, XFree86, affichage, carte vidéo, informations système",
    "X-KDE-Keywords[ga]": "X,Freastalaí-X,Freastalaí X,XFree86,Scáileán,Físchárta,Eolas faoin Chóras",
    "X-KDE-Keywords[gl]": "X,servidor X,XServer,XFree86,Pantalla,Tarxeta de vídeo,información do sistema",
    "X-KDE-Keywords[hu]": "X,X kiszolgáló,XServer,XFree86,Kijelző,Videokártya,Rendszerjellemzők",
    "X-KDE-Keywords[ia]": "X,Servitor-X,SXerver,XFree86,Monstrator,Scheda video,Information de systema",
    "X-KDE-Keywords[id]": "X,X-Server,XServer,XFree86,Tampilan,KartuVideo,Informasi Sistem,",
    "X-KDE-Keywords[it]": "X,X-Server,XServer,XFree86,Monitor,scheda video,Informazioni di sistema",
    "X-KDE-Keywords[kk]": "X,X-Server,XServer,XFree86,Display,VideoCard,System Information",
    "X-KDE-Keywords[km]": "X,X-Server,XServer,XFree86,Display,VideoCard,System Information",
    "X-KDE-Keywords[ko]": "X,X-Server,XServer,XFree86,Display,VideoCard,System Information,디스플레이,그래픽 카드,비디오 카드,시스템 정보",
    "X-KDE-Keywords[lt]": "X,X-Server,XServer,XFree86,Ekranas,Video plokštės,Vaizdo plokstes,Vaizdo plokštė,Vaizdo plokste,Sistemos informacija,Informacija apie sistemą,Informacija apie sistema",
    "X-KDE-Keywords[mr]": "x, x-सर्व्हर, xसर्व्हर,  xफ्री८६, डीसप्ले, व्हिडीओ कार्ड,प्रणाली माहीती",
    "X-KDE-Keywords[nb]": "X,X-tjener,Xtjener,XFree86,skjerm,Videokort,systeminformasjon",
    "X-KDE-Keywords[nds]": "X,X-Server,XServer,XFree86,Schirm,Utsehn,Videokoort,System-Informatschonen",
    "X-KDE-Keywords[nl]": "X,X-Server,XServer,XFree86,scherm,videocard,systeeminformatie",
    "X-KDE-Keywords[nn]": "X,X-tener,XServer,XFree86,skjerm,skjermkort,videokort,systeminformasjon",
    "X-KDE-Keywords[pa]": "X,X-ਸਰਵਰ,Xਸਰਵਰ,XFree86,ਡਿਸਪਲੇਅ,ਵੀਡੀਓਕਾਰਡ,ਵਿਡੀਓਕਾਰਡ,ਸਿਸਟਮ ਜਾਣਕਾਰੀ",
    "X-KDE-Keywords[pl]": "X,Serwer-X,SerwerX,XFree86,Wyświetlacz,Karta wideo,Dane o systemie",
    "X-KDE-Keywords[pt]": "X,Servidor-X,Servidor de X,XFree86,Ecrã,Placa Gráfica,Informação do Sistema",
    "X-KDE-Keywords[pt_BR]": "X,Servidor-X,Servidor X,XFree86,Monitor,Placa de vídeo,Informação do sistema",
    "X-KDE-Keywords[ro]": "X,X-Server,XServer,XFree86,Display,VideoCard,informații sistem,server X,ecran,placă video",
    "X-KDE-Keywords[ru]": "X,X-Server,XServer,XFree86,Display,VideoCard,System Information,дисплей,видеокарта,сведения о системе,сервер X",
    "X-KDE-Keywords[sk]": "X,X-Server,XServer,XFree86,Obrazovka,Videokarta,Systémové informácie",
    "X-KDE-Keywords[sl]": "X11,x,strežnik x,xserver,xorg,xfree86,x.org,zaslon,prikazovalnik,grafični strežnik,grafična kartica,sistemski podatki,podatki o sistemu",
    "X-KDE-Keywords[sr@ijekavian]": "X,X-Server,XServer,XFree86,Display,VideoCard,System Information,Икс,икс сервер,Икс‑фри86,Икс‑орг,приказ,видео картица,системске информације",
    "X-KDE-Keywords[sr@ijekavianlatin]": "X,X-Server,XServer,XFree86,Display,VideoCard,System Information,X,X server,XFree86,XOrg,prikaz,video kartica,sistemske informacije",
    "X-KDE-Keywords[sr@latin]": "X,X-Server,XServer,XFree86,Display,VideoCard,System Information,X,X server,XFree86,XOrg,prikaz,video kartica,sistemske informacije",
    "X-KDE-Keywords[sr]": "X,X-Server,XServer,XFree86,Display,VideoCard,System Information,Икс,икс сервер,Икс‑фри86,Икс‑орг,приказ,видео картица,системске информације",
    "X-KDE-Keywords[sv]": "X,X-Server,XServer,XFree86,Bildskärm,Videokort,Systeminformation",
    "X-KDE-Keywords[tr]": "X,X-Server,XSunucu,XFree86,Ekran,Ekran Kartı,Sistem Bilgileri",
    "X-KDE-Keywords[uk]": "X,X-Server,XServer,XFree86,Display,VideoCard,System Information,сервер,графічний,графічний сервер,дисплей,відео,відеокартка,система,інформація,відомості",
    "X-KDE-Keywords[vi]": "X,X-Server,XServer,XFree86,Display,VideoCard,System Information,Máy chủ X,Hiển thị,Bo mạch đồ hoạ,Thông tin hệ thống",
    "X-KDE-Keywords[x-test]": "xxXxx,xxX-Serverxx,xxXServerxx,xxXFree86xx,xxDisplayxx,xxVideoCardxx,xxSystem Informationxx",
    "X-KDE-Keywords[zh_CN]": "X,X-Server,XServer,XFree86,Display,VideoCard,System Information,X 服务器,显示,显示器,显卡,GPU,系统信息",
    "X-KDE-Keywords[zh_TW]": "X,X-Server,XServer,XFree86,Display,VideoCard,System Information"
}
